[
{
    "arguments": [
        "clang",
        "-I",
        "/opt/Qt/Tools/QtCreator/share/qtcreator/cplusplus/wrappedQtHeaders",
        "-I",
        "/opt/Qt/Tools/QtCreator/share/qtcreator/cplusplus/wrappedQtHeaders/QtCore",
        "-I",
        "/tmp/QtCreator-YqGtBN/clang-uiheader-mttqpC",
        "-nostdinc",
        "-nostdinc++",
        "-pipe",
        "-g",
        "-std=gnu++1z",
        "-Wall",
        "-Wextra",
        "-fPIC",
        "-D_REENTRANT",
        "-fsyntax-only",
        "-m64",
        "--target=x86_64-linux-gnu",
        "-DQ_CREATOR_RUN",
        "-DQT_QML_DEBUG",
        "-DQT_MULTIMEDIA_LIB",
        "-DQT_WIDGETS_LIB",
        "-DQT_GUI_LIB",
        "-DQT_NETWORK_LIB",
        "-DQT_CORE_LIB",
        "-I",
        "/home/USERS/ELEVES/SNIR2022/kdasse/ProjetNoel/black_jack/src/ClientBlackJack",
        "-I",
        "/opt/Qt/6.5.1/gcc_64/include",
        "-I",
        "/opt/Qt/6.5.1/gcc_64/include/QtMultimedia",
        "-I",
        "/opt/Qt/6.5.1/gcc_64/include/QtWidgets",
        "-I",
        "/opt/Qt/6.5.1/gcc_64/include/QtGui",
        "-I",
        "/opt/Qt/6.5.1/gcc_64/include/QtNetwork",
        "-I",
        "/opt/Qt/6.5.1/gcc_64/include/QtCore",
        "-I",
        "/opt/Qt/6.5.1/gcc_64/mkspecs/linux-g++",
        "-isystem",
        "/usr/include/c++/9",
        "-isystem",
        "/usr/include/x86_64-linux-gnu/c++/9",
        "-isystem",
        "/usr/include/c++/9/backward",
        "-isystem",
        "/usr/local/include",
        "-isystem",
        "/opt/Qt/Tools/QtCreator/libexec/qtcreator/clang/lib/clang/14.0.3/include",
        "-isystem",
        "/usr/include/x86_64-linux-gnu",
        "-isystem",
        "/usr/include",
        "-fmessage-length=0",
        "-fdiagnostics-show-note-include-stack",
        "-fretain-comments-from-system-headers",
        "-fmacro-backtrace-limit=0",
        "-ferror-limit=1000",
        "-x",
        "c++",
        "-Wno-unknown-pragmas",
        "-Wno-unknown-warning-option",
        "-Wno-documentation-unknown-command",
        "/home/USERS/ELEVES/SNIR2022/kdasse/ProjetNoel/black_jack/src/ClientBlackJack/carte.cpp"
    ],
    "directory": "/home/USERS/ELEVES/SNIR2022/kdasse/ProjetNoel/black_jack/src/ClientBlackJack/.qtc_clangd",
    "file": "/home/USERS/ELEVES/SNIR2022/kdasse/ProjetNoel/black_jack/src/ClientBlackJack/carte.cpp"
},
{
    "arguments": [
        "clang",
        "-I",
        "/opt/Qt/Tools/QtCreator/share/qtcreator/cplusplus/wrappedQtHeaders",
        "-I",
        "/opt/Qt/Tools/QtCreator/share/qtcreator/cplusplus/wrappedQtHeaders/QtCore",
        "-I",
        "/tmp/QtCreator-YqGtBN/clang-uiheader-mttqpC",
        "-nostdinc",
        "-nostdinc++",
        "-pipe",
        "-g",
        "-std=gnu++1z",
        "-Wall",
        "-Wextra",
        "-fPIC",
        "-D_REENTRANT",
        "-fsyntax-only",
        "-m64",
        "--target=x86_64-linux-gnu",
        "-DQ_CREATOR_RUN",
        "-DQT_QML_DEBUG",
        "-DQT_MULTIMEDIA_LIB",
        "-DQT_WIDGETS_LIB",
        "-DQT_GUI_LIB",
        "-DQT_NETWORK_LIB",
        "-DQT_CORE_LIB",
        "-I",
        "/home/USERS/ELEVES/SNIR2022/kdasse/ProjetNoel/black_jack/src/ClientBlackJack",
        "-I",
        "/opt/Qt/6.5.1/gcc_64/include",
        "-I",
        "/opt/Qt/6.5.1/gcc_64/include/QtMultimedia",
        "-I",
        "/opt/Qt/6.5.1/gcc_64/include/QtWidgets",
        "-I",
        "/opt/Qt/6.5.1/gcc_64/include/QtGui",
        "-I",
        "/opt/Qt/6.5.1/gcc_64/include/QtNetwork",
        "-I",
        "/opt/Qt/6.5.1/gcc_64/include/QtCore",
        "-I",
        "/opt/Qt/6.5.1/gcc_64/mkspecs/linux-g++",
        "-isystem",
        "/usr/include/c++/9",
        "-isystem",
        "/usr/include/x86_64-linux-gnu/c++/9",
        "-isystem",
        "/usr/include/c++/9/backward",
        "-isystem",
        "/usr/local/include",
        "-isystem",
        "/opt/Qt/Tools/QtCreator/libexec/qtcreator/clang/lib/clang/14.0.3/include",
        "-isystem",
        "/usr/include/x86_64-linux-gnu",
        "-isystem",
        "/usr/include",
        "-fmessage-length=0",
        "-fdiagnostics-show-note-include-stack",
        "-fretain-comments-from-system-headers",
        "-fmacro-backtrace-limit=0",
        "-ferror-limit=1000",
        "-x",
        "c++",
        "-Wno-unknown-pragmas",
        "-Wno-unknown-warning-option",
        "-Wno-documentation-unknown-command",
        "/home/USERS/ELEVES/SNIR2022/kdasse/ProjetNoel/black_jack/src/ClientBlackJack/joueur.cpp"
    ],
    "directory": "/home/USERS/ELEVES/SNIR2022/kdasse/ProjetNoel/black_jack/src/ClientBlackJack/.qtc_clangd",
    "file": "/home/USERS/ELEVES/SNIR2022/kdasse/ProjetNoel/black_jack/src/ClientBlackJack/joueur.cpp"
},
{
    "arguments": [
        "clang",
        "-I",
        "/opt/Qt/Tools/QtCreator/share/qtcreator/cplusplus/wrappedQtHeaders",
        "-I",
        "/opt/Qt/Tools/QtCreator/share/qtcreator/cplusplus/wrappedQtHeaders/QtCore",
        "-I",
        "/tmp/QtCreator-YqGtBN/clang-uiheader-mttqpC",
        "-nostdinc",
        "-nostdinc++",
        "-pipe",
        "-g",
        "-std=gnu++1z",
        "-Wall",
        "-Wextra",
        "-fPIC",
        "-D_REENTRANT",
        "-fsyntax-only",
        "-m64",
        "--target=x86_64-linux-gnu",
        "-DQ_CREATOR_RUN",
        "-DQT_QML_DEBUG",
        "-DQT_MULTIMEDIA_LIB",
        "-DQT_WIDGETS_LIB",
        "-DQT_GUI_LIB",
        "-DQT_NETWORK_LIB",
        "-DQT_CORE_LIB",
        "-I",
        "/home/USERS/ELEVES/SNIR2022/kdasse/ProjetNoel/black_jack/src/ClientBlackJack",
        "-I",
        "/opt/Qt/6.5.1/gcc_64/include",
        "-I",
        "/opt/Qt/6.5.1/gcc_64/include/QtMultimedia",
        "-I",
        "/opt/Qt/6.5.1/gcc_64/include/QtWidgets",
        "-I",
        "/opt/Qt/6.5.1/gcc_64/include/QtGui",
        "-I",
        "/opt/Qt/6.5.1/gcc_64/include/QtNetwork",
        "-I",
        "/opt/Qt/6.5.1/gcc_64/include/QtCore",
        "-I",
        "/opt/Qt/6.5.1/gcc_64/mkspecs/linux-g++",
        "-isystem",
        "/usr/include/c++/9",
        "-isystem",
        "/usr/include/x86_64-linux-gnu/c++/9",
        "-isystem",
        "/usr/include/c++/9/backward",
        "-isystem",
        "/usr/local/include",
        "-isystem",
        "/opt/Qt/Tools/QtCreator/libexec/qtcreator/clang/lib/clang/14.0.3/include",
        "-isystem",
        "/usr/include/x86_64-linux-gnu",
        "-isystem",
        "/usr/include",
        "-fmessage-length=0",
        "-fdiagnostics-show-note-include-stack",
        "-fretain-comments-from-system-headers",
        "-fmacro-backtrace-limit=0",
        "-ferror-limit=1000",
        "-x",
        "c++",
        "-Wno-unknown-pragmas",
        "-Wno-unknown-warning-option",
        "-Wno-documentation-unknown-command",
        "/home/USERS/ELEVES/SNIR2022/kdasse/ProjetNoel/black_jack/src/ClientBlackJack/main.cpp"
    ],
    "directory": "/home/USERS/ELEVES/SNIR2022/kdasse/ProjetNoel/black_jack/src/ClientBlackJack/.qtc_clangd",
    "file": "/home/USERS/ELEVES/SNIR2022/kdasse/ProjetNoel/black_jack/src/ClientBlackJack/main.cpp"
},
{
    "arguments": [
        "clang",
        "-I",
        "/opt/Qt/Tools/QtCreator/share/qtcreator/cplusplus/wrappedQtHeaders",
        "-I",
        "/opt/Qt/Tools/QtCreator/share/qtcreator/cplusplus/wrappedQtHeaders/QtCore",
        "-I",
        "/tmp/QtCreator-YqGtBN/clang-uiheader-mttqpC",
        "-nostdinc",
        "-nostdinc++",
        "-pipe",
        "-g",
        "-std=gnu++1z",
        "-Wall",
        "-Wextra",
        "-fPIC",
        "-D_REENTRANT",
        "-fsyntax-only",
        "-m64",
        "--target=x86_64-linux-gnu",
        "-DQ_CREATOR_RUN",
        "-DQT_QML_DEBUG",
        "-DQT_MULTIMEDIA_LIB",
        "-DQT_WIDGETS_LIB",
        "-DQT_GUI_LIB",
        "-DQT_NETWORK_LIB",
        "-DQT_CORE_LIB",
        "-I",
        "/home/USERS/ELEVES/SNIR2022/kdasse/ProjetNoel/black_jack/src/ClientBlackJack",
        "-I",
        "/opt/Qt/6.5.1/gcc_64/include",
        "-I",
        "/opt/Qt/6.5.1/gcc_64/include/QtMultimedia",
        "-I",
        "/opt/Qt/6.5.1/gcc_64/include/QtWidgets",
        "-I",
        "/opt/Qt/6.5.1/gcc_64/include/QtGui",
        "-I",
        "/opt/Qt/6.5.1/gcc_64/include/QtNetwork",
        "-I",
        "/opt/Qt/6.5.1/gcc_64/include/QtCore",
        "-I",
        "/opt/Qt/6.5.1/gcc_64/mkspecs/linux-g++",
        "-isystem",
        "/usr/include/c++/9",
        "-isystem",
        "/usr/include/x86_64-linux-gnu/c++/9",
        "-isystem",
        "/usr/include/c++/9/backward",
        "-isystem",
        "/usr/local/include",
        "-isystem",
        "/opt/Qt/Tools/QtCreator/libexec/qtcreator/clang/lib/clang/14.0.3/include",
        "-isystem",
        "/usr/include/x86_64-linux-gnu",
        "-isystem",
        "/usr/include",
        "-fmessage-length=0",
        "-fdiagnostics-show-note-include-stack",
        "-fretain-comments-from-system-headers",
        "-fmacro-backtrace-limit=0",
        "-ferror-limit=1000",
        "-x",
        "c++",
        "-Wno-unknown-pragmas",
        "-Wno-unknown-warning-option",
        "-Wno-documentation-unknown-command",
        "/home/USERS/ELEVES/SNIR2022/kdasse/ProjetNoel/black_jack/src/ClientBlackJack/clientbj.cpp"
    ],
    "directory": "/home/USERS/ELEVES/SNIR2022/kdasse/ProjetNoel/black_jack/src/ClientBlackJack/.qtc_clangd",
    "file": "/home/USERS/ELEVES/SNIR2022/kdasse/ProjetNoel/black_jack/src/ClientBlackJack/clientbj.cpp"
},
{
    "arguments": [
        "clang",
        "-I",
        "/opt/Qt/Tools/QtCreator/share/qtcreator/cplusplus/wrappedQtHeaders",
        "-I",
        "/opt/Qt/Tools/QtCreator/share/qtcreator/cplusplus/wrappedQtHeaders/QtCore",
        "-I",
        "/tmp/QtCreator-YqGtBN/clang-uiheader-mttqpC",
        "-nostdinc",
        "-nostdinc++",
        "-pipe",
        "-g",
        "-std=gnu++1z",
        "-Wall",
        "-Wextra",
        "-fPIC",
        "-D_REENTRANT",
        "-fsyntax-only",
        "-m64",
        "--target=x86_64-linux-gnu",
        "-DQ_CREATOR_RUN",
        "-DQT_QML_DEBUG",
        "-DQT_MULTIMEDIA_LIB",
        "-DQT_WIDGETS_LIB",
        "-DQT_GUI_LIB",
        "-DQT_NETWORK_LIB",
        "-DQT_CORE_LIB",
        "-I",
        "/home/USERS/ELEVES/SNIR2022/kdasse/ProjetNoel/black_jack/src/ClientBlackJack",
        "-I",
        "/opt/Qt/6.5.1/gcc_64/include",
        "-I",
        "/opt/Qt/6.5.1/gcc_64/include/QtMultimedia",
        "-I",
        "/opt/Qt/6.5.1/gcc_64/include/QtWidgets",
        "-I",
        "/opt/Qt/6.5.1/gcc_64/include/QtGui",
        "-I",
        "/opt/Qt/6.5.1/gcc_64/include/QtNetwork",
        "-I",
        "/opt/Qt/6.5.1/gcc_64/include/QtCore",
        "-I",
        "/opt/Qt/6.5.1/gcc_64/mkspecs/linux-g++",
        "-isystem",
        "/usr/include/c++/9",
        "-isystem",
        "/usr/include/x86_64-linux-gnu/c++/9",
        "-isystem",
        "/usr/include/c++/9/backward",
        "-isystem",
        "/usr/local/include",
        "-isystem",
        "/opt/Qt/Tools/QtCreator/libexec/qtcreator/clang/lib/clang/14.0.3/include",
        "-isystem",
        "/usr/include/x86_64-linux-gnu",
        "-isystem",
        "/usr/include",
        "-fmessage-length=0",
        "-fdiagnostics-show-note-include-stack",
        "-fretain-comments-from-system-headers",
        "-fmacro-backtrace-limit=0",
        "-ferror-limit=1000",
        "-x",
        "c++-header",
        "-Wno-unknown-pragmas",
        "-Wno-unknown-warning-option",
        "-Wno-documentation-unknown-command",
        "/home/USERS/ELEVES/SNIR2022/kdasse/ProjetNoel/black_jack/src/ClientBlackJack/carte.h"
    ],
    "directory": "/home/USERS/ELEVES/SNIR2022/kdasse/ProjetNoel/black_jack/src/ClientBlackJack/.qtc_clangd",
    "file": "/home/USERS/ELEVES/SNIR2022/kdasse/ProjetNoel/black_jack/src/ClientBlackJack/carte.h"
},
{
    "arguments": [
        "clang",
        "-I",
        "/opt/Qt/Tools/QtCreator/share/qtcreator/cplusplus/wrappedQtHeaders",
        "-I",
        "/opt/Qt/Tools/QtCreator/share/qtcreator/cplusplus/wrappedQtHeaders/QtCore",
        "-I",
        "/tmp/QtCreator-YqGtBN/clang-uiheader-mttqpC",
        "-nostdinc",
        "-nostdinc++",
        "-pipe",
        "-g",
        "-std=gnu++1z",
        "-Wall",
        "-Wextra",
        "-fPIC",
        "-D_REENTRANT",
        "-fsyntax-only",
        "-m64",
        "--target=x86_64-linux-gnu",
        "-DQ_CREATOR_RUN",
        "-DQT_QML_DEBUG",
        "-DQT_MULTIMEDIA_LIB",
        "-DQT_WIDGETS_LIB",
        "-DQT_GUI_LIB",
        "-DQT_NETWORK_LIB",
        "-DQT_CORE_LIB",
        "-I",
        "/home/USERS/ELEVES/SNIR2022/kdasse/ProjetNoel/black_jack/src/ClientBlackJack",
        "-I",
        "/opt/Qt/6.5.1/gcc_64/include",
        "-I",
        "/opt/Qt/6.5.1/gcc_64/include/QtMultimedia",
        "-I",
        "/opt/Qt/6.5.1/gcc_64/include/QtWidgets",
        "-I",
        "/opt/Qt/6.5.1/gcc_64/include/QtGui",
        "-I",
        "/opt/Qt/6.5.1/gcc_64/include/QtNetwork",
        "-I",
        "/opt/Qt/6.5.1/gcc_64/include/QtCore",
        "-I",
        "/opt/Qt/6.5.1/gcc_64/mkspecs/linux-g++",
        "-isystem",
        "/usr/include/c++/9",
        "-isystem",
        "/usr/include/x86_64-linux-gnu/c++/9",
        "-isystem",
        "/usr/include/c++/9/backward",
        "-isystem",
        "/usr/local/include",
        "-isystem",
        "/opt/Qt/Tools/QtCreator/libexec/qtcreator/clang/lib/clang/14.0.3/include",
        "-isystem",
        "/usr/include/x86_64-linux-gnu",
        "-isystem",
        "/usr/include",
        "-fmessage-length=0",
        "-fdiagnostics-show-note-include-stack",
        "-fretain-comments-from-system-headers",
        "-fmacro-backtrace-limit=0",
        "-ferror-limit=1000",
        "-x",
        "c++-header",
        "-Wno-unknown-pragmas",
        "-Wno-unknown-warning-option",
        "-Wno-documentation-unknown-command",
        "/home/USERS/ELEVES/SNIR2022/kdasse/ProjetNoel/black_jack/src/ClientBlackJack/clientbj.h"
    ],
    "directory": "/home/USERS/ELEVES/SNIR2022/kdasse/ProjetNoel/black_jack/src/ClientBlackJack/.qtc_clangd",
    "file": "/home/USERS/ELEVES/SNIR2022/kdasse/ProjetNoel/black_jack/src/ClientBlackJack/clientbj.h"
},
{
    "arguments": [
        "clang",
        "-I",
        "/opt/Qt/Tools/QtCreator/share/qtcreator/cplusplus/wrappedQtHeaders",
        "-I",
        "/opt/Qt/Tools/QtCreator/share/qtcreator/cplusplus/wrappedQtHeaders/QtCore",
        "-I",
        "/tmp/QtCreator-YqGtBN/clang-uiheader-mttqpC",
        "-nostdinc",
        "-nostdinc++",
        "-pipe",
        "-g",
        "-std=gnu++1z",
        "-Wall",
        "-Wextra",
        "-fPIC",
        "-D_REENTRANT",
        "-fsyntax-only",
        "-m64",
        "--target=x86_64-linux-gnu",
        "-DQ_CREATOR_RUN",
        "-DQT_QML_DEBUG",
        "-DQT_MULTIMEDIA_LIB",
        "-DQT_WIDGETS_LIB",
        "-DQT_GUI_LIB",
        "-DQT_NETWORK_LIB",
        "-DQT_CORE_LIB",
        "-I",
        "/home/USERS/ELEVES/SNIR2022/kdasse/ProjetNoel/black_jack/src/ClientBlackJack",
        "-I",
        "/opt/Qt/6.5.1/gcc_64/include",
        "-I",
        "/opt/Qt/6.5.1/gcc_64/include/QtMultimedia",
        "-I",
        "/opt/Qt/6.5.1/gcc_64/include/QtWidgets",
        "-I",
        "/opt/Qt/6.5.1/gcc_64/include/QtGui",
        "-I",
        "/opt/Qt/6.5.1/gcc_64/include/QtNetwork",
        "-I",
        "/opt/Qt/6.5.1/gcc_64/include/QtCore",
        "-I",
        "/opt/Qt/6.5.1/gcc_64/mkspecs/linux-g++",
        "-isystem",
        "/usr/include/c++/9",
        "-isystem",
        "/usr/include/x86_64-linux-gnu/c++/9",
        "-isystem",
        "/usr/include/c++/9/backward",
        "-isystem",
        "/usr/local/include",
        "-isystem",
        "/opt/Qt/Tools/QtCreator/libexec/qtcreator/clang/lib/clang/14.0.3/include",
        "-isystem",
        "/usr/include/x86_64-linux-gnu",
        "-isystem",
        "/usr/include",
        "-fmessage-length=0",
        "-fdiagnostics-show-note-include-stack",
        "-fretain-comments-from-system-headers",
        "-fmacro-backtrace-limit=0",
        "-ferror-limit=1000",
        "-x",
        "c++-header",
        "-Wno-unknown-pragmas",
        "-Wno-unknown-warning-option",
        "-Wno-documentation-unknown-command",
        "/home/USERS/ELEVES/SNIR2022/kdasse/ProjetNoel/black_jack/src/ClientBlackJack/joueur.h"
    ],
    "directory": "/home/USERS/ELEVES/SNIR2022/kdasse/ProjetNoel/black_jack/src/ClientBlackJack/.qtc_clangd",
    "file": "/home/USERS/ELEVES/SNIR2022/kdasse/ProjetNoel/black_jack/src/ClientBlackJack/joueur.h"
},
{
    "arguments": [
        "clang",
        "-I",
        "/opt/Qt/Tools/QtCreator/share/qtcreator/cplusplus/wrappedQtHeaders",
        "-I",
        "/opt/Qt/Tools/QtCreator/share/qtcreator/cplusplus/wrappedQtHeaders/QtCore",
        "-I",
        "/tmp/QtCreator-YqGtBN/clang-uiheader-mttqpC",
        "-nostdinc",
        "-nostdinc++",
        "-pipe",
        "-g",
        "-std=gnu++1z",
        "-Wall",
        "-Wextra",
        "-fPIC",
        "-D_REENTRANT",
        "-fsyntax-only",
        "-m64",
        "--target=x86_64-linux-gnu",
        "-DQ_CREATOR_RUN",
        "-DQT_QML_DEBUG",
        "-DQT_MULTIMEDIA_LIB",
        "-DQT_WIDGETS_LIB",
        "-DQT_GUI_LIB",
        "-DQT_NETWORK_LIB",
        "-DQT_CORE_LIB",
        "-I",
        "/home/USERS/ELEVES/SNIR2022/kdasse/ProjetNoel/black_jack/src/ClientBlackJack",
        "-I",
        "/opt/Qt/6.5.1/gcc_64/include",
        "-I",
        "/opt/Qt/6.5.1/gcc_64/include/QtMultimedia",
        "-I",
        "/opt/Qt/6.5.1/gcc_64/include/QtWidgets",
        "-I",
        "/opt/Qt/6.5.1/gcc_64/include/QtGui",
        "-I",
        "/opt/Qt/6.5.1/gcc_64/include/QtNetwork",
        "-I",
        "/opt/Qt/6.5.1/gcc_64/include/QtCore",
        "-I",
        "/opt/Qt/6.5.1/gcc_64/mkspecs/linux-g++",
        "-isystem",
        "/usr/include/c++/9",
        "-isystem",
        "/usr/include/x86_64-linux-gnu/c++/9",
        "-isystem",
        "/usr/include/c++/9/backward",
        "-isystem",
        "/usr/local/include",
        "-isystem",
        "/opt/Qt/Tools/QtCreator/libexec/qtcreator/clang/lib/clang/14.0.3/include",
        "-isystem",
        "/usr/include/x86_64-linux-gnu",
        "-isystem",
        "/usr/include",
        "-fmessage-length=0",
        "-fdiagnostics-show-note-include-stack",
        "-fretain-comments-from-system-headers",
        "-fmacro-backtrace-limit=0",
        "-ferror-limit=1000",
        "-x",
        "c++-header",
        "-Wno-unknown-pragmas",
        "-Wno-unknown-warning-option",
        "-Wno-documentation-unknown-command",
        "/home/USERS/ELEVES/SNIR2022/kdasse/ProjetNoel/black_jack/src/ClientBlackJack/ui_clientbj.h"
    ],
    "directory": "/home/USERS/ELEVES/SNIR2022/kdasse/ProjetNoel/black_jack/src/ClientBlackJack/.qtc_clangd",
    "file": "/home/USERS/ELEVES/SNIR2022/kdasse/ProjetNoel/black_jack/src/ClientBlackJack/ui_clientbj.h"
}
]